…
    ## [[1]]
    ## # A tibble: 54 x 4
    ##         x_       y_ t_                  burst_
    ##  *   <dbl>    <dbl> <dttm>               <dbl>
    ##  1 489065. 4312100. 2017-02-14 00:08:27      1
    ##  2 489104. 4312124. 2017-02-14 03:08:28      1
    ##  3 489100. 4312115. 2017-02-14 06:08:27      1
    ##  4 491530. 4320139. 2017-02-14 09:08:28      1
    ##  5 491534. 4320144. 2017-02-14 12:08:27      1
    ##  6 491524. 4320124. 2017-02-14 15:08:26      1
    ##  7 491547. 4320143. 2017-02-14 18:08:27      1
    ##  8 491547. 4320054. 2017-02-14 21:08:28      1
    ##  9 491553. 4320064. 2017-02-15 00:08:30      2
    ## 10 491535. 4320064. 2017-02-15 03:08:30      2
    ## # … with 44 more rows
    ## 
    ## [[2]]
    ## # A tibble: 54 x 4
    ##         x_       y_ t_                  burst_
    ##  *   <dbl>    <dbl> <dttm>               <dbl>
    ##  1 492602. 4317001. 2017-07-04 22:06:59      1
    ##  2 492596. 4317010. 2017-07-05 01:06:59      1
    ##  3 492594. 4317009. 2017-07-05 04:06:59      1
    ##  4 491748. 4320082. 2017-07-05 13:07:08      4
    ##  5 491736. 4320060. 2017-07-05 16:07:07      4
    ##  6 491739. 4320061. 2017-07-05 19:07:06      4
    ##  7 491691. 4319781. 2017-07-06 07:07:31      8
    ##  8 491675. 4319731. 2017-07-06 10:07:31      8
    ##  9 491682. 4319726. 2017-07-06 13:07:31      8
    ## 10 491494. 4319788. 2017-07-07 04:07:55     13
    ## # … with 44 more rows
    ## 
    ## [[3]]
    ## # A tibble: 52 x 4
    ##         x_       y_ t_                  burst_
    ##  *   <dbl>    <dbl> <dttm>               <dbl>
    ##  1 489102. 4312121. 2017-02-14 06:11:02      3
    ##  2 493555. 4317548. 2017-02-14 09:11:01      3
    ##  3 493743. 4317178. 2017-02-14 12:11:03      4
    ##  4 493608. 4317623. 2017-02-14 15:11:03      4
    ##  5 493613. 4317619. 2017-02-14 18:11:04      4
    ##  6 493819. 4318369. 2017-02-14 21:11:05      4
    ##  7 494029. 4318799. 2017-02-15 00:11:06      4
    ##  8 494029. 4318802. 2017-02-15 03:11:06      4
    ##  9 494167. 4318753. 2017-02-15 09:11:11      6
    ## 10 494192. 4318750. 2017-02-15 12:11:11      6
    ## # … with 42 more rows
    ## 
    ## [[4]]
    ## # A tibble: 80 x 4
    ##         x_       y_ t_                  burst_
    ##  *   <dbl>    <dbl> <dttm>               <dbl>
    ##  1 494362. 4319748. 2017-11-01 19:13:17      5
    ##  2 494578. 4319958. 2017-11-01 22:13:18      5
    ##  3 494505. 4319793. 2017-11-03 04:14:23     15
    ##  4 494465. 4320000. 2017-11-03 07:14:23     15
    ##  5 494434. 4320063. 2017-11-03 13:14:33     17
    ##  6 494481. 4319994. 2017-11-03 16:14:33     17
    ##  7 494366. 4319982. 2017-11-03 19:14:41     18
    ##  8 494337. 4319961. 2017-11-03 22:14:42     18
    ##  9 494522. 4319701. 2017-11-04 01:14:42     18
    ## 10 494518. 4319878. 2017-11-04 19:15:15     24
    ## # … with 70 more rows
…
